#SampleID	BarcodeSequence	LinkerPrimerSequence	ID_unique_extraction	Experiment	Former_sample_designation	Treatment	Harvest	C	N	I	Soil	DESEQ	Barcode_initial	Barcode_incremented	Description
#Mammoth															
X21			113	Mammoth	7	I	0	0	0	1	Yedoma_I	a	21	21	I0
X22			114	Mammoth	8	I	0	0	0	1	Yedoma_I	a	22	22	I0
X23			115	Mammoth	9	I	0	0	0	1	Yedoma_I	a	23	23	I0
X24			116	Mammoth	10	Y	0	0	0	0	Yedoma	b	24	24	Y0
X25			117	Mammoth	11	Y	0	0	0	0	Yedoma	b	25	25	Y0
X26			118	Mammoth	12	Y	0	0	0	0	Yedoma	b	26	26	Y0
X30			122	Mammoth	Theix_R1	I	pre	0	0	1	Theix	c	30	30	Ipre
X31			123	Mammoth	Theix_R2	I	pre	0	0	1	Theix	c	31	31	Ipre
X33			124	Mammoth	Theix_R3	I	pre	0	0	1	Theix	c	33	33	Ipre
X49			Ctrl1	Ctrl	Ctrl	Ctrl	Ctrl	0	0	0	pcr_ctrl	e	49	49	pcr_ctrl
X50			Ctrl2	Ctrl	Ctrl	Ctrl	Ctrl	0	0	0	pcr_ctrl	e	50	50	pcr_ctrl
X54			143	Mammoth	34	I	1	0	0	1	Yedoma_I	a	54	54	I1
X55			144	Mammoth	35	I	1	0	0	1	Yedoma_I	a	55	55	I1
X56			145	Mammoth	36	I	1	0	0	1	Yedoma_I	a	56	56	I1
X57			146	Mammoth	37	Y	1	0	0	0	Yedoma	b	57	57	Y1
X58			147	Mammoth	38	Y	1	0	0	0	Yedoma	b	58	58	Y1
X59			148	Mammoth	39	Y	1	0	0	0	Yedoma	b	59	59	Y1
X84			173	Mammoth	124	I	4	0	0	1	Yedoma_I	a	84	84	I4
X85			174	Mammoth	125	I	4	0	0	1	Yedoma_I	a	85	85	I4
X86			175	Mammoth	126	I	4	0	0	1	Yedoma_I	a	86	86	I4
X87			176	Mammoth	127	Y	4	0	0	0	Yedoma	b	87	87	Y4
X88			177	Mammoth	128	Y	4	0	0	0	Yedoma	b	88	88	Y4
X89			178	Mammoth	129	Y	4	0	0	0	Yedoma	b	89	89	Y4
X115			221	Mammoth	64	I	2	0	0	1	Yedoma_I	a	19	115	I2
X116			222	Mammoth	65	I	2	0	0	1	Yedoma_I	a	20	116	I2
X117			223	Mammoth	66	I	2	0	0	1	Yedoma_I	a	21	117	I2
X118			224	Mammoth	67	Y	2	0	0	0	Yedoma	b	22	118	Y2
X119			225	Mammoth	68	Y	2	0	0	0	Yedoma	b	23	119	Y2
X120			226	Mammoth	69	Y	2	0	0	0	Yedoma	b	24	120	Y2
X136			275	Ctrl	Ctrl	Ctrl	Ctrl	0	0	0	extr_ctrl	e	40	136	extr_ctrl
X137			Ctrl	Ctrl	Ctrl	Ctrl	Ctrl	0	0	0	pcr_ctrl	e	41	137	pcr_ctrl
X148			251	Mammoth	94	I	3	0	0	1	Yedoma_I	a	52	148	I3
X149			252	Mammoth	95	I	3	0	0	1	Yedoma_I	a	53	149	I3
X150			253	Mammoth	96	I	3	0	0	1	Yedoma_I	a	54	150	I3
X151			254	Mammoth	97	Y	3	0	0	0	Yedoma	b	55	151	Y3
X152			255	Mammoth	98	Y	3	0	0	0	Yedoma	b	56	152	Y3
X153			256	Mammoth	99	Y	3	0	0	0	Yedoma	b	57	153	Y3
X174			185	Mammoth	Y_coreA	Y	pre	0	0	0	Yedoma	d	78	174	Ypre
X175			186	Mammoth	Y_coreB	Y	pre	0	0	0	Yedoma	d	79	175	Ypre
X176			187	Mammoth	Y_coreC	Y	pre	0	0	0	Yedoma	d	80	176	Ypre
