date	day	days_since_flush	pot	trt	soil_type	cellulose	nutrients	inoc	replica	CO2_rate	CO2_rate_interp	CO2_cum_interp
29/01/2014	2	2	106	Y_CNF	Y	1	1	1	1	21.73785	21.73785	43.47571
29/01/2014	2	2	107	Y_CNF	Y	1	1	1	2	22.54306	22.54306	45.08611
29/01/2014	2	2	108	Y_CNF	Y	1	1	1	3	23.19257	23.19257	46.38514
29/01/2014	2	2	109	Y_CN	Y	1	1	0	1	19.06517	19.06517	38.13034
29/01/2014	2	2	110	Y_CN	Y	1	1	0	2	19.7551	19.7551	39.51019
29/01/2014	2	2	111	Y_CN	Y	1	1	0	3	21.29322	21.29322	42.58644
29/01/2014	2	2	112	Y_CF	Y	1	0	1	1	25.48965	25.48965	50.9793
29/01/2014	2	2	113	Y_CF	Y	1	0	1	2	23.42675	23.42675	46.85351
29/01/2014	2	2	114	Y_CF	Y	1	0	1	3	28.59211	28.59211	57.18423
29/01/2014	2	2	115	Y_C	Y	1	0	0	1	18.79132	18.79132	37.58264
29/01/2014	2	2	116	Y_C	Y	1	0	0	2	19.52972	19.52972	39.05945
29/01/2014	2	2	117	Y_C	Y	1	0	0	3	22.04794	22.04794	44.09587
29/01/2014	2	2	118	Y_NF	Y	0	1	1	1	23.51463	23.51463	47.02926
29/01/2014	2	2	119	Y_NF	Y	0	1	1	2	24.25118	24.25118	48.50236
29/01/2014	2	2	120	Y_NF	Y	0	1	1	3	26.70571	26.70571	53.41142
29/01/2014	2	2	121	Y_N	Y	0	1	0	1	18.67404	18.67404	37.34809
29/01/2014	2	2	122	Y_N	Y	0	1	0	2	19.23634	19.23634	38.47267
29/01/2014	2	2	123	Y_N	Y	0	1	0	3	20.29395	20.29395	40.5879
29/01/2014	2	2	124	Y_F	Y	0	0	1	1	24.65564	24.65564	49.31128
29/01/2014	2	2	125	Y_F	Y	0	0	1	2	26.13386	26.13386	52.26773
29/01/2014	2	2	126	Y_F	Y	0	0	1	3	19.46456	19.46456	38.92913
29/01/2014	2	2	127	Y_0	Y	0	0	0	1	17.69713	17.69713	35.39426
29/01/2014	2	2	128	Y_0	Y	0	0	0	2	15.13861	15.13861	30.27722
29/01/2014	2	2	129	Y_0	Y	0	0	0	3	16.87124	16.87124	33.74249
29/01/2014	2	2	133	S_N	S	0	1	0	1	4.65968	4.65968	9.31936
29/01/2014	2	2	134	S_N	S	0	1	0	2	4.34014	4.34014	8.68029
29/01/2014	2	2	135	S_N	S	0	1	0	3	4.88576	4.88576	9.77152
31/01/2014	4	2	106	Y_CNF	Y	1	1	1	1	61.10008	61.10008	165.67588
31/01/2014	4	2	107	Y_CNF	Y	1	1	1	2	59.51695	59.51695	164.12002
31/01/2014	4	2	108	Y_CNF	Y	1	1	1	3	57.11977	57.11977	160.62468
31/01/2014	4	2	109	Y_CN	Y	1	1	0	1	54.53993	54.53993	147.2102
31/01/2014	4	2	110	Y_CN	Y	1	1	0	2	55.77877	55.77877	151.06773
31/01/2014	4	2	111	Y_CN	Y	1	1	0	3	58.89578	58.89578	160.378
31/01/2014	4	2	112	Y_CF	Y	1	0	1	1	62.91884	62.91884	176.81697
31/01/2014	4	2	113	Y_CF	Y	1	0	1	2	60.15342	60.15342	167.16035
31/01/2014	4	2	114	Y_CF	Y	1	0	1	3	65.66772	65.66772	188.51967
31/01/2014	4	2	115	Y_C	Y	1	0	0	1	53.80384	53.80384	145.19032
31/01/2014	4	2	116	Y_C	Y	1	0	0	2	55.6355	55.6355	150.33045
31/01/2014	4	2	117	Y_C	Y	1	0	0	3	59.5293	59.5293	163.15447
31/01/2014	4	2	118	Y_NF	Y	0	1	1	1	59.98245	59.98245	166.99416
31/01/2014	4	2	119	Y_NF	Y	0	1	1	2	60.77176	60.77176	170.04588
31/01/2014	4	2	120	Y_NF	Y	0	1	1	3	60.9729	60.9729	175.35723
31/01/2014	4	2	121	Y_N	Y	0	1	0	1	58.63139	58.63139	154.61088
31/01/2014	4	2	122	Y_N	Y	0	1	0	2	55.74264	55.74264	149.95796
31/01/2014	4	2	123	Y_N	Y	0	1	0	3	58.32392	58.32392	157.23574
31/01/2014	4	2	124	Y_F	Y	0	0	1	1	63.0859	63.0859	175.48309
31/01/2014	4	2	125	Y_F	Y	0	0	1	2	66.73891	66.73891	185.74554
31/01/2014	4	2	126	Y_F	Y	0	0	1	3	58.81702	58.81702	156.56317
31/01/2014	4	2	127	Y_0	Y	0	0	0	1	54.91979	54.91979	145.23385
31/01/2014	4	2	128	Y_0	Y	0	0	0	2	50.61724	50.61724	131.5117
31/01/2014	4	2	129	Y_0	Y	0	0	0	3	55.19246	55.19246	144.12741
31/01/2014	4	2	133	S_N	S	0	1	0	1	6.24274	6.24274	21.80483
31/01/2014	4	2	134	S_N	S	0	1	0	2	5.68317	5.68317	20.04663
31/01/2014	4	2	135	S_N	S	0	1	0	3	5.47528	5.47528	20.72208
02/06/2014	10	6	106	Y_CNF	Y	1	1	1	1	16.92927	16.92927	267.25151
02/06/2014	10	6	107	Y_CNF	Y	1	1	1	2	16.52419	16.52419	263.26514
02/06/2014	10	6	108	Y_CNF	Y	1	1	1	3	16.02287	16.02287	256.76187
02/06/2014	10	6	109	Y_CN	Y	1	1	0	1	15.15029	15.15029	238.11194
02/06/2014	10	6	110	Y_CN	Y	1	1	0	2	14.58384	14.58384	238.57075
02/06/2014	10	6	111	Y_CN	Y	1	1	0	3	14.42491	14.42491	246.92749
02/06/2014	10	6	112	Y_CF	Y	1	0	1	1	17.82332	17.82332	283.75688
02/06/2014	10	6	113	Y_CF	Y	1	0	1	2	17.04047	17.04047	269.40319
02/06/2014	10	6	114	Y_CF	Y	1	0	1	3	17.71543	17.71543	294.81223
02/06/2014	10	6	115	Y_C	Y	1	0	0	1	15.82151	15.82151	240.11937
02/06/2014	10	6	116	Y_C	Y	1	0	0	2	15.0342	15.0342	240.53564
02/06/2014	10	6	117	Y_C	Y	1	0	0	3	15.51873	15.51873	256.26687
02/06/2014	10	6	118	Y_NF	Y	0	1	1	1	16.51682	16.51682	266.09508
02/06/2014	10	6	119	Y_NF	Y	0	1	1	2	16.64908	16.64908	269.94035
02/06/2014	10	6	120	Y_NF	Y	0	1	1	3	16.49674	16.49674	274.33767
02/06/2014	10	6	121	Y_N	Y	0	1	0	1	14.64061	14.64061	242.45452
02/06/2014	10	6	122	Y_N	Y	0	1	0	2	14.11984	14.11984	234.677
02/06/2014	10	6	123	Y_N	Y	0	1	0	3	14.468	14.468	244.04374
02/06/2014	10	6	124	Y_F	Y	0	0	1	1	17.20429	17.20429	278.70882
02/06/2014	10	6	125	Y_F	Y	0	0	1	2	16.96565	16.96565	287.53944
02/06/2014	10	6	126	Y_F	Y	0	0	1	3	17.09459	17.09459	259.1307
02/06/2014	10	6	127	Y_0	Y	0	0	0	1	14.74671	14.74671	233.71411
02/06/2014	10	6	128	Y_0	Y	0	0	0	2	15.52035	15.52035	224.63381
02/06/2014	10	6	129	Y_0	Y	0	0	0	3	15.06287	15.06287	234.50462
02/06/2014	10	6	133	S_N	S	0	1	0	1	1.69237	1.69237	31.95903
02/06/2014	10	6	134	S_N	S	0	1	0	2	1.80181	1.80181	30.8575
02/06/2014	10	6	135	S_N	S	0	1	0	3	1.69789	1.69789	30.90945
02/11/2014	15	5	46	Y_CNF	Y	1	1	1	1	14.02269	15.79364	346.21969
02/11/2014	15	5	47	Y_CNF	Y	1	1	1	2	14.19759	14.95636	338.04696
02/11/2014	15	5	48	Y_CNF	Y	1	1	1	3	14.353	14.47	329.11187
02/11/2014	15	5	49	Y_CN	Y	1	1	0	1	10.7401	11.62727	296.2483
02/11/2014	15	5	50	Y_CN	Y	1	1	0	2	11.08047	11.18455	294.49348
02/11/2014	15	5	51	Y_CN	Y	1	1	0	3	11.03429	11.27	303.27749
02/11/2014	15	5	52	Y_CF	Y	1	0	1	1	16.18719	16.18818	364.69779
02/11/2014	15	5	53	Y_CF	Y	1	0	1	2	17.27778	15.69455	347.87591
02/11/2014	15	5	54	Y_CF	Y	1	0	1	3	16.59929	15.89727	374.29858
02/11/2014	15	5	55	Y_C	Y	1	0	0	1	11.87159	11.92909	299.76482
02/11/2014	15	5	56	Y_C	Y	1	0	0	2	11.29884	11.97091	300.39018
02/11/2014	15	5	57	Y_C	Y	1	0	0	3	10.98096	12.00182	316.27596
02/11/2014	15	5	58	Y_NF	Y	0	1	1	1	13.97937	14.84273	340.30871
02/11/2014	15	5	59	Y_NF	Y	0	1	1	2	16.25197	15.06364	345.25853
02/11/2014	15	5	60	Y_NF	Y	0	1	1	3	15.58987	15.10909	349.88312
02/11/2014	15	5	61	Y_N	Y	0	1	0	1	9.22901	11.00818	297.49543
02/11/2014	15	5	62	Y_N	Y	0	1	0	2	9.46775	10.49273	287.14063
02/11/2014	15	5	63	Y_N	Y	0	1	0	3	9.27868	10.87	298.39374
02/11/2014	15	5	64	Y_F	Y	0	0	1	1	17.0927	15.44091	355.91336
02/11/2014	15	5	65	Y_F	Y	0	0	1	2	17.1685	15.03364	362.70762
02/11/2014	15	5	66	Y_F	Y	0	0	1	3	18.64126	15.71273	337.69434
02/11/2014	15	5	67	Y_0	Y	0	0	0	1	10.90749	11.01818	288.80502
02/11/2014	15	5	68	Y_0	Y	0	0	0	2	11.2467	11.39273	281.59745
02/11/2014	15	5	69	Y_0	Y	0	0	0	3	10.24906	11.40091	291.50916
02/11/2014	15	5	73	S_N	S	0	1	0	1	1.29042	1.59455	39.93176
02/11/2014	15	5	74	S_N	S	0	1	0	2	1.39717	1.69091	39.31205
02/11/2014	15	5	75	S_N	S	0	1	0	3	1.27007	1.57727	38.79581
17/02/2014	21	6	106	Y_CNF	Y	1	1	1	1	14.43271	14.43271	432.81595
17/02/2014	21	6	107	Y_CNF	Y	1	1	1	2	13.08294	13.08294	416.5446
17/02/2014	21	6	108	Y_CNF	Y	1	1	1	3	12.60798	12.60798	404.75975
17/02/2014	21	6	109	Y_CN	Y	1	1	0	1	7.40495	7.40495	340.67801
17/02/2014	21	6	110	Y_CN	Y	1	1	0	2	7.1053	7.1053	337.12528
17/02/2014	21	6	111	Y_CN	Y	1	1	0	3	7.48521	7.48521	348.18872
17/02/2014	21	6	112	Y_CF	Y	1	0	1	1	14.23072	14.23072	450.08212
17/02/2014	21	6	113	Y_CF	Y	1	0	1	2	14.07506	14.07506	432.32629
17/02/2014	21	6	114	Y_CF	Y	1	0	1	3	13.71285	13.71285	456.57569
17/02/2014	21	6	115	Y_C	Y	1	0	0	1	7.25696	7.25696	343.30661
17/02/2014	21	6	116	Y_C	Y	1	0	0	2	8.3046	8.3046	350.21781
17/02/2014	21	6	117	Y_C	Y	1	0	0	3	7.78004	7.78004	362.95622
17/02/2014	21	6	118	Y_NF	Y	0	1	1	1	12.82958	12.82958	417.28619
17/02/2014	21	6	119	Y_NF	Y	0	1	1	2	13.15542	13.15542	424.19107
17/02/2014	21	6	120	Y_NF	Y	0	1	1	3	13.44425	13.44425	430.54861
17/02/2014	21	6	121	Y_N	Y	0	1	0	1	6.65099	6.65099	337.40135
17/02/2014	21	6	122	Y_N	Y	0	1	0	2	6.14055	6.14055	323.98395
17/02/2014	21	6	123	Y_N	Y	0	1	0	3	6.54583	6.54583	337.66871
17/02/2014	21	6	124	Y_F	Y	0	0	1	1	13.33088	13.33088	435.89863
17/02/2014	21	6	125	Y_F	Y	0	0	1	2	12.71086	12.71086	438.97281
17/02/2014	21	6	126	Y_F	Y	0	0	1	3	14.0606	14.0606	422.05791
17/02/2014	21	6	127	Y_0	Y	0	0	0	1	6.54215	6.54215	328.05792
17/02/2014	21	6	128	Y_0	Y	0	0	0	2	6.44141	6.44141	320.24593
17/02/2014	21	6	129	Y_0	Y	0	0	0	3	7.01115	7.01115	333.57606
17/02/2014	21	6	133	S_N	S	0	1	0	1	1.4786	1.4786	48.80338
17/02/2014	21	6	134	S_N	S	0	1	0	2	1.55778	1.55778	48.65874
17/02/2014	21	6	135	S_N	S	0	1	0	3	1.43327	1.43327	47.39542
26/02/2014	30	9	106	Y_CNF	Y	1	1	1	1	13.60327	13.60327	555.24537
26/02/2014	30	9	107	Y_CNF	Y	1	1	1	2	12.65537	12.65537	530.44295
26/02/2014	30	9	108	Y_CNF	Y	1	1	1	3	12.57043	12.57043	517.89367
26/02/2014	30	9	109	Y_CN	Y	1	1	0	1	7.01554	7.01554	403.81791
26/02/2014	30	9	110	Y_CN	Y	1	1	0	2	7.16463	7.16463	401.60691
26/02/2014	30	9	111	Y_CN	Y	1	1	0	3	6.47875	6.47875	406.49747
26/02/2014	30	9	112	Y_CF	Y	1	0	1	1	12.09777	12.09777	558.9621
26/02/2014	30	9	113	Y_CF	Y	1	0	1	2	12.57648	12.57648	545.51465
26/02/2014	30	9	114	Y_CF	Y	1	0	1	3	12.01741	12.01741	564.73236
26/02/2014	30	9	115	Y_C	Y	1	0	0	1	6.24689	6.24689	399.52863
26/02/2014	30	9	116	Y_C	Y	1	0	0	2	7.39834	7.39834	416.80283
26/02/2014	30	9	117	Y_C	Y	1	0	0	3	6.9702	6.9702	425.68799
26/02/2014	30	9	118	Y_NF	Y	0	1	1	1	9.66135	9.66135	504.23837
26/02/2014	30	9	119	Y_NF	Y	0	1	1	2	9.77045	9.77045	512.12514
26/02/2014	30	9	120	Y_NF	Y	0	1	1	3	9.98775	9.98775	520.4384
26/02/2014	30	9	121	Y_N	Y	0	1	0	1	5.50663	5.50663	386.96098
26/02/2014	30	9	122	Y_N	Y	0	1	0	2	5.68864	5.68864	375.18175
26/02/2014	30	9	123	Y_N	Y	0	1	0	3	7.83263	7.83263	408.16234
26/02/2014	30	9	124	Y_F	Y	0	0	1	1	9.9975	9.9975	525.87615
26/02/2014	30	9	125	Y_F	Y	0	0	1	2	9.77129	9.77129	526.91439
26/02/2014	30	9	126	Y_F	Y	0	0	1	3	9.93083	9.93083	511.43541
26/02/2014	30	9	127	Y_0	Y	0	0	0	1	5.43646	5.43646	376.98609
26/02/2014	30	9	128	Y_0	Y	0	0	0	2	5.86817	5.86817	373.05947
26/02/2014	30	9	129	Y_0	Y	0	0	0	3	8.6338	8.6338	411.2803
26/02/2014	30	9	133	S_N	S	0	1	0	1	2.06851	2.06851	67.41998
26/02/2014	30	9	134	S_N	S	0	1	0	2	2.09038	2.09038	67.47217
26/02/2014	30	9	135	S_N	S	0	1	0	3	2.0719	2.0719	66.04254
13/3/2014	45	15	46	Y_CNF	Y	1	1	1	1	14.31133	11.50195	727.77459
13/3/2014	45	15	47	Y_CNF	Y	1	1	1	2	15.49119	10.75091	691.70658
13/3/2014	45	15	48	Y_CNF	Y	1	1	1	3	14.23802	10.68429	678.15796
13/3/2014	45	15	49	Y_CN	Y	1	1	0	1	11.47831	6.20571	496.90362
13/3/2014	45	15	50	Y_CN	Y	1	1	0	2	11.50187	6.32039	496.41276
13/3/2014	45	15	51	Y_CN	Y	1	1	0	3	9.90078	5.98714	496.30461
13/3/2014	45	15	52	Y_CF	Y	1	0	1	1	14.24737	10.35455	714.28027
13/3/2014	45	15	53	Y_CF	Y	1	0	1	2	14.21422	10.7274	706.42569
13/3/2014	45	15	54	Y_CF	Y	1	0	1	3	14.31868	10.30766	719.34726
13/3/2014	45	15	55	Y_C	Y	1	0	0	1	11.26322	5.59935	483.51889
13/3/2014	45	15	56	Y_C	Y	1	0	0	2	13.15373	6.52922	514.74115
13/3/2014	45	15	57	Y_C	Y	1	0	0	3	12.41907	6.12455	517.55617
13/3/2014	45	15	58	Y_NF	Y	0	1	1	1	11.78661	8.3626	629.67732
13/3/2014	45	15	59	Y_NF	Y	0	1	1	2	11.65181	8.44727	638.83423
13/3/2014	45	15	60	Y_NF	Y	0	1	1	3	11.98603	8.63026	649.8923
13/3/2014	45	15	61	Y_N	Y	0	1	0	1	8.91356	5.00351	462.01357
13/3/2014	45	15	62	Y_N	Y	0	1	0	2	11.68315	5.02182	450.50902
13/3/2014	45	15	63	Y_N	Y	0	1	0	3	13.82146	6.70013	508.66429
13/3/2014	45	15	64	Y_F	Y	0	0	1	1	12.49148	8.70455	656.44432
13/3/2014	45	15	65	Y_F	Y	0	0	1	2	12.31695	8.50571	654.5001
13/3/2014	45	15	66	Y_F	Y	0	0	1	3	12.24665	8.62286	640.77826
13/3/2014	45	15	67	Y_0	Y	0	0	0	1	10.08146	4.93351	450.98868
13/3/2014	45	15	68	Y_0	Y	0	0	0	2	11.28802	5.2252	451.4374
13/3/2014	45	15	69	Y_0	Y	0	0	0	3	13.30081	7.35013	521.53225
13/3/2014	45	15	73	S_N	S	0	1	0	1	1.50622	1.88104	95.63557
13/3/2014	45	15	74	S_N	S	0	1	0	2	1.55233	1.91078	96.13385
13/3/2014	45	15	75	S_N	S	0	1	0	3	1.53973	1.89662	94.49189
04/08/2014	71	26	46	Y_CNF	Y	1	1	1	1	3.40282	7.86533	932.27304
04/08/2014	71	26	47	Y_CNF	Y	1	1	1	2	3.3139	7.44182	885.19385
04/08/2014	71	26	48	Y_CNF	Y	1	1	1	3	3.35964	7.41571	870.96652
04/08/2014	71	26	49	Y_CN	Y	1	1	0	1	3.90734	4.79429	621.55505
04/08/2014	71	26	50	Y_CN	Y	1	1	0	2	4.03493	4.86507	622.90445
04/08/2014	71	26	51	Y_CN	Y	1	1	0	3	3.59589	5.13286	629.7589
04/08/2014	71	26	52	Y_CF	Y	1	0	1	1	3.54265	7.32909	904.83664
04/08/2014	71	26	53	Y_CF	Y	1	0	1	2	3.56069	7.51623	901.84778
04/08/2014	71	26	54	Y_CF	Y	1	0	1	3	3.62912	7.33961	910.17712
04/08/2014	71	26	55	Y_C	Y	1	0	0	1	3.71216	4.47156	599.7794
04/08/2014	71	26	56	Y_C	Y	1	0	0	2	3.65245	5.01987	645.25777
04/08/2014	71	26	57	Y_C	Y	1	0	0	3	4.32089	4.65909	638.69253
04/08/2014	71	26	58	Y_NF	Y	0	1	1	1	3.31827	6.11377	788.63524
04/08/2014	71	26	59	Y_NF	Y	0	1	1	2	3.2782	6.15455	798.8524
04/08/2014	71	26	60	Y_NF	Y	0	1	1	3	3.43623	6.27338	813.0001
04/08/2014	71	26	61	Y_N	Y	0	1	0	1	2.98638	4.12558	569.27876
04/08/2014	71	26	62	Y_N	Y	0	1	0	2	3.89015	3.86364	550.96356
04/08/2014	71	26	63	Y_N	Y	0	1	0	3	3.17872	4.74169	631.94817
04/08/2014	71	26	64	Y_F	Y	0	0	1	1	3.81881	6.45909	824.38069
04/08/2014	71	26	65	Y_F	Y	0	0	1	2	3.68791	6.31429	818.67153
04/08/2014	71	26	66	Y_F	Y	0	0	1	3	3.63192	6.35714	806.06398
04/08/2014	71	26	67	Y_0	Y	0	0	0	1	3.60468	4.05558	556.43386
04/08/2014	71	26	68	Y_0	Y	0	0	0	2	3.56643	4.10753	558.23323
04/08/2014	71	26	69	Y_0	Y	0	0	0	3	2.89169	5.13169	654.95614
04/08/2014	71	26	73	S_N	S	0	1	0	1	1.25591	1.55351	136.02672
04/08/2014	71	26	74	S_N	S	0	1	0	2	1.32492	1.60013	137.73723
04/08/2014	71	26	75	S_N	S	0	1	0	3	1.31153	1.5961	135.99059
14/05/2014	107	36	106	Y_CNF	Y	1	1	1	1	2.83301	2.83301	1034.26133
14/05/2014	107	36	107	Y_CNF	Y	1	1	1	2	2.86463	2.86463	988.32038
14/05/2014	107	36	108	Y_CNF	Y	1	1	1	3	2.88831	2.88831	974.94575
14/05/2014	107	36	109	Y_CN	Y	1	1	0	1	2.83908	2.83908	723.76177
14/05/2014	107	36	110	Y_CN	Y	1	1	0	2	2.85314	2.85314	725.61732
14/05/2014	107	36	111	Y_CN	Y	1	1	0	3	3.95057	3.95057	771.97957
14/05/2014	107	36	112	Y_CF	Y	1	0	1	1	3.13593	3.13593	1017.72994
14/05/2014	107	36	113	Y_CF	Y	1	0	1	2	3.06919	3.06919	1012.33866
14/05/2014	107	36	114	Y_CF	Y	1	0	1	3	3.22968	3.22968	1026.44569
14/05/2014	107	36	115	Y_C	Y	1	0	0	1	2.91192	2.91192	704.60862
14/05/2014	107	36	116	Y_C	Y	1	0	0	2	2.92594	2.92594	750.59157
14/05/2014	107	36	117	Y_C	Y	1	0	0	3	2.63365	2.63365	733.50396
14/05/2014	107	36	118	Y_NF	Y	0	1	1	1	3.00137	3.00137	896.68458
14/05/2014	107	36	119	Y_NF	Y	0	1	1	2	2.98468	2.98468	906.30087
14/05/2014	107	36	120	Y_NF	Y	0	1	1	3	3.00707	3.00707	921.25477
14/05/2014	107	36	121	Y_N	Y	0	1	0	1	2.9072	2.9072	673.93806
14/05/2014	107	36	122	Y_N	Y	0	1	0	2	2.25627	2.25627	632.18942
14/05/2014	107	36	123	Y_N	Y	0	1	0	3	2.03145	2.03145	705.08048
14/05/2014	107	36	124	Y_F	Y	0	0	1	1	3.35229	3.35229	945.06301
14/05/2014	107	36	125	Y_F	Y	0	0	1	2	3.27658	3.27658	936.62834
14/05/2014	107	36	126	Y_F	Y	0	0	1	3	3.21615	3.21615	921.84532
14/05/2014	107	36	127	Y_0	Y	0	0	0	1	2.83926	2.83926	658.6474
14/05/2014	107	36	128	Y_0	Y	0	0	0	2	2.55532	2.55532	650.2247
14/05/2014	107	36	129	Y_0	Y	0	0	0	3	2.06338	2.06338	729.23787
14/05/2014	107	36	133	S_N	S	0	1	0	1	1.1018	1.1018	175.69162
14/05/2014	107	36	134	S_N	S	0	1	0	2	1.1744	1.1744	180.01561
14/05/2014	107	36	135	S_N	S	0	1	0	3	1.17545	1.17545	178.30662
17/06/2014	141	34	106	Y_CNF	Y	1	1	1	1	2.37708	2.37708	1115.08208
17/06/2014	141	34	107	Y_CNF	Y	1	1	1	2	2.27603	2.27603	1065.70526
17/06/2014	141	34	108	Y_CNF	Y	1	1	1	3	2.24065	2.24065	1051.12783
17/06/2014	141	34	109	Y_CN	Y	1	1	0	1	1.91162	1.91162	788.75692
17/06/2014	141	34	110	Y_CN	Y	1	1	0	2	1.78868	1.78868	786.43238
17/06/2014	141	34	111	Y_CN	Y	1	1	0	3	2.01667	2.01667	840.54627
17/06/2014	141	34	112	Y_CF	Y	1	0	1	1	2.54105	2.54105	1104.1255
17/06/2014	141	34	113	Y_CF	Y	1	0	1	2	2.50733	2.50733	1097.58793
17/06/2014	141	34	114	Y_CF	Y	1	0	1	3	2.64018	2.64018	1116.21169
17/06/2014	141	34	115	Y_C	Y	1	0	0	1	2.11411	2.11411	776.48832
17/06/2014	141	34	116	Y_C	Y	1	0	0	2	1.87303	1.87303	814.27474
17/06/2014	141	34	117	Y_C	Y	1	0	0	3	1.93666	1.93666	799.35035
17/06/2014	141	34	118	Y_NF	Y	0	1	1	1	2.22884	2.22884	972.46504
17/06/2014	141	34	119	Y_NF	Y	0	1	1	2	2.22736	2.22736	982.03111
17/06/2014	141	34	120	Y_NF	Y	0	1	1	3	2.31608	2.31608	1000.00133
17/06/2014	141	34	121	Y_N	Y	0	1	0	1	2.48274	2.48274	758.35139
17/06/2014	141	34	122	Y_N	Y	0	1	0	2	1.44389	1.44389	681.28172
17/06/2014	141	34	123	Y_N	Y	0	1	0	3	1.53219	1.53219	757.175
17/06/2014	141	34	124	Y_F	Y	0	0	1	1	2.37422	2.37422	1025.78657
17/06/2014	141	34	125	Y_F	Y	0	0	1	2	2.38842	2.38842	1017.83459
17/06/2014	141	34	126	Y_F	Y	0	0	1	3	2.47557	2.47557	1006.01458
17/06/2014	141	34	127	Y_0	Y	0	0	0	1	1.88769	1.88769	722.8288
17/06/2014	141	34	128	Y_0	Y	0	0	0	2	1.62328	1.62328	705.41615
17/06/2014	141	34	129	Y_0	Y	0	0	0	3	1.58029	1.58029	782.96788
17/06/2014	141	34	133	S_N	S	0	1	0	1	0.85781	0.85781	204.85723
17/06/2014	141	34	134	S_N	S	0	1	0	2	0.89954	0.89954	210.59989
17/06/2014	141	34	135	S_N	S	0	1	0	3	0.88933	0.88933	208.54386
07/07/2014	161	20	106	Y_CNF	Y	1	1	1	1	2.36797	2.36797	1162.44144
07/07/2014	161	20	107	Y_CNF	Y	1	1	1	2	2.11617	2.11617	1108.02871
07/07/2014	161	20	108	Y_CNF	Y	1	1	1	3	2.11719	2.11719	1093.47171
07/07/2014	161	20	109	Y_CN	Y	1	1	0	1	1.62966	1.62966	821.35019
07/07/2014	161	20	110	Y_CN	Y	1	1	0	2	1.68543	1.68543	820.14103
07/07/2014	161	20	111	Y_CN	Y	1	1	0	3	1.60044	1.60044	872.5551
07/07/2014	161	20	112	Y_CF	Y	1	0	1	1	2.40305	2.40305	1152.18644
07/07/2014	161	20	113	Y_CF	Y	1	0	1	2	2.34942	2.34942	1144.57624
07/07/2014	161	20	114	Y_CF	Y	1	0	1	3	2.83692	2.83692	1172.95003
07/07/2014	161	20	115	Y_C	Y	1	0	0	1	1.99573	1.99573	816.40297
07/07/2014	161	20	116	Y_C	Y	1	0	0	2	1.79951	1.79951	850.26484
07/07/2014	161	20	117	Y_C	Y	1	0	0	3	1.94936	1.94936	838.33759
07/07/2014	161	20	118	Y_NF	Y	0	1	1	1	2.09376	2.09376	1014.3402
07/07/2014	161	20	119	Y_NF	Y	0	1	1	2	2.09622	2.09622	1023.95544
07/07/2014	161	20	120	Y_NF	Y	0	1	1	3	2.38998	2.38998	1047.80097
07/07/2014	161	20	121	Y_N	Y	0	1	0	1	2.07542	2.07542	799.85986
07/07/2014	161	20	122	Y_N	Y	0	1	0	2	1.44397	1.44397	710.16121
07/07/2014	161	20	123	Y_N	Y	0	1	0	3	1.63876	1.63876	789.95022
07/07/2014	161	20	124	Y_F	Y	0	0	1	1	2.2575	2.2575	1070.93658
07/07/2014	161	20	125	Y_F	Y	0	0	1	2	2.33882	2.33882	1064.61095
07/07/2014	161	20	126	Y_F	Y	0	0	1	3	2.50003	2.50003	1056.01517
07/07/2014	161	20	127	Y_0	Y	0	0	0	1	1.63999	1.63999	755.62856
07/07/2014	161	20	128	Y_0	Y	0	0	0	2	1.60814	1.60814	737.5789
07/07/2014	161	20	129	Y_0	Y	0	0	0	3	1.79234	1.79234	818.81476
07/07/2014	161	20	133	S_N	S	0	1	0	1	0.84686	0.84686	221.79434
07/07/2014	161	20	134	S_N	S	0	1	0	2	0.89564	0.89564	228.51272
07/07/2014	161	20	135	S_N	S	0	1	0	3	0.86022	0.86022	225.7482
