OTU_Id	X21	X23	X24	X25	X26	X30	X31	X33	X54	X55	X56	X57	X58	X59	X84	X85	X86	X87	X88	X89	X115	X116	X117	X118	X119	X120	X148	X149	X150	X151	X152	X153	X174	X175	X176
k__Bacteria;Other	0.001656	0.001658	0.001168	0.00101	9e-05	0.002426	0.002768	0.002644	0.000192	9.8e-05	0.000128	0.000216	7.2e-05	0.000166	0.000512	0.00119	0.000966	0.00017	4.6e-05	0.000212	0.001044	0.000266	0.00016	0.000152	0.000172	0.000124	8.4e-05	0.000236	0.000456	0.00015	0.000216	8.8e-05	0.003068	0.003812	0.002836
k__Bacteria;p__AD3	0.000236	0.000548	0.000418	0.000404	0.0	0.000926	0.001126	0.000958	0.000126	5.6e-05	1.6e-05	4.8e-05	0.0	0.0	5.4e-05	0.000158	0.00012	0.0	0.0	4e-05	0.000518	1.4e-05	1.8e-05	0.0	1.8e-05	0.0	0.0	1.4e-05	3e-05	8e-06	0.0	1.8e-05	0.000224	0.0	0.0
k__Bacteria;p__Acidobacteria	0.105786	0.110958	0.016876	0.018434	0.49961	0.112104	0.148322	0.125558	0.005422	0.00402	0.003442	0.000716	0.002262	0.000552	0.030234	0.039674	0.023502	0.001678	0.000774	0.00568	0.04712	0.003752	0.004532	0.000514	0.000184	0.000178	0.005668	0.00735	0.019894	2.8e-05	0.000322	0.000292	0.030088	0.02458	0.004144
k__Bacteria;p__Actinobacteria	0.172958	0.172576	0.04401	0.065976	0.117374	0.337484	0.23336	0.253104	0.015706	0.009228	0.011592	0.057532	0.048266	0.076848	0.022076	0.032942	0.024876	0.145738	0.088178	0.048626	0.111772	0.010154	0.01626	0.033356	0.040722	0.114528	0.0087	0.01161	0.016538	0.058044	0.07009	0.106262	0.065268	0.053088	0.07846
k__Bacteria;p__Armatimonadetes	0.00039	0.00014	8.2e-05	2.6e-05	0.007438	0.000344	0.00032	0.000542	0.0	0.0	0.0	0.0	0.000104	0.0	0.002694	0.003094	0.001768	3e-05	0.0	0.0	0.000234	7.2e-05	0.00022	0.0	0.0	0.0	0.00028	0.000384	0.000388	0.0	0.0	0.0	0.0	8.2e-05	0.0
k__Bacteria;p__BRC1	0.0	0.0	0.0	0.0	0.0	2.8e-05	0.0	4.6e-05	0.0	0.0	0.0	0.0	0.0	0.0	0.0	2.2e-05	0.0	0.0	0.0	0.0	3.6e-05	0.0	0.0	0.0	0.0	0.0	0.0	0.0	0.0	0.0	0.0	0.0	0.0	0.0	0.0
k__Bacteria;p__Bacteroidetes	0.018942	0.036992	0.015976	0.020312	0.03044	0.021406	0.045558	0.038264	0.455818	0.360218	0.421664	0.00085	0.001358	0.000462	0.202128	0.16494	0.136024	0.014216	0.029502	0.006176	0.225088	0.390414	0.362646	0.009532	0.001244	0.000458	0.300234	0.26375	0.258032	0.03367	0.000154	0.000338	0.035048	0.020816	0.057488
k__Bacteria;p__Chlamydiae	8e-05	0.000138	3.2e-05	8.8e-05	7.2e-05	0.000236	0.000162	0.00012	0.0	0.0	0.0	0.0	0.0	0.0	5.2e-05	1.6e-05	0.0	0.0	0.0	0.0	2.8e-05	0.0	1e-05	0.0	0.0	0.0	0.0	6.6e-05	2e-05	0.0	0.0	0.0	0.000154	0.00052	0.000178
k__Bacteria;p__Chlorobi	0.000372	0.000748	0.000424	0.00039	0.0	0.00025	0.000476	0.000424	1e-05	3.4e-05	8e-06	0.0	0.0	9.4e-05	0.000708	0.000874	0.000372	0.0	0.0	0.0	0.000124	3.2e-05	3.2e-05	0.0	0.0	0.0	0.000136	0.000136	0.0002	0.0	0.0	0.0	0.002134	0.001966	0.0
k__Bacteria;p__Chloroflexi	0.034618	0.026972	0.005006	0.005786	0.000114	0.05175	0.052408	0.050736	0.001636	0.001294	0.00123	0.0	0.00135	8.6e-05	0.006294	0.010982	0.005716	2.8e-05	0.000104	0.001722	0.020588	0.001302	0.001602	0.000224	4.2e-05	5.8e-05	0.000996	0.00145	0.004462	2e-05	6e-05	4.4e-05	0.007812	0.00529	0.003368
k__Bacteria;p__Cyanobacteria	0.000778	0.001372	0.002436	0.004872	0.007052	0.00029	0.000764	0.000974	1e-05	1.2e-05	5.2e-05	4.8e-05	0.000252	0.000148	0.000276	7.4e-05	0.000578	2e-05	6.4e-05	3.4e-05	0.0004	2e-05	6.8e-05	5.8e-05	0.000172	0.0	0.000174	4e-05	6e-05	7.4e-05	1.8e-05	8.4e-05	0.000678	0.00061	0.000864
k__Bacteria;p__Elusimicrobia	0.000854	0.00054	0.0	0.0	0.000126	0.000274	0.000668	0.00062	3.4e-05	3.4e-05	0.0	0.0	0.0	0.0	3.6e-05	7e-05	0.0	0.0	0.0	0.0	0.00028	1.2e-05	5.2e-05	0.0	0.0	0.0	0.0	1e-05	0.000154	0.0	0.0	0.0	5.8e-05	0.0	0.0
k__Bacteria;p__FBP	0.0	0.0	0.0	0.0	7.2e-05	0.0	0.0	2e-05	0.0	0.0	0.0	0.0	0.0	0.0	1.2e-05	1.2e-05	0.000394	0.0	0.0	0.0	0.0	0.0	0.0	0.0	0.0	0.0	0.0	0.00033	2e-05	0.0	0.0	0.0	0.0	0.0	0.0
k__Bacteria;p__FCPU426	0.00014	0.000158	0.0	0.0	0.0	4e-05	3e-05	2.8e-05	0.0	0.0	1.4e-05	0.0	0.0	0.0	0.000446	0.000862	0.000492	0.0	0.0	0.0	2.4e-05	0.0	0.0	0.0	0.0	0.0	0.0	0.0	2.2e-05	0.0	0.0	0.0	0.0	0.0	0.0
k__Bacteria;p__Fibrobacteres	9.4e-05	0.001016	0.0	2e-05	0.0	0.000168	0.00093	0.000288	8.6e-05	6.4e-05	5e-05	0.0	0.0	7.4e-05	0.00372	0.004228	0.028238	0.0	0.0	0.0	0.005462	0.001714	0.003504	1.8e-05	0.0	0.0	0.00374	0.004944	0.004308	0.0	0.0	0.0	0.00018	0.0	0.000176
k__Bacteria;p__Firmicutes	0.328742	0.284832	0.81619	0.74659	0.003812	0.123628	0.10106	0.131028	0.044152	0.034806	0.03738	0.88478	0.693922	0.91391	0.020158	0.024844	0.018058	0.166456	0.112398	0.10586	0.088276	0.034022	0.036648	0.79338	0.353832	0.732162	0.017246	0.016978	0.019796	0.55638	0.565814	0.246954	0.696256	0.73415	0.601216
k__Bacteria;p__GN02	9.8e-05	4.2e-05	0.0	0.0	0.0	0.000246	0.000122	0.0002	1.6e-05	0.0	0.0	0.0	0.0	0.0	0.0	0.0	0.0	0.0	0.0	0.0	9.4e-05	0.0	0.0	0.0	0.0	0.0	3.6e-05	1.8e-05	0.0	0.0	0.0	0.0	0.0	0.0	0.0
k__Bacteria;p__Gemmatimonadetes	0.0178	0.019504	0.008912	0.011254	0.000198	0.022364	0.03503	0.027862	0.001724	0.000746	0.000892	0.000426	0.000446	0.000406	0.030374	0.029806	0.03587	0.007832	0.00409	0.005524	0.01149	0.001654	0.001564	8e-05	0.000152	0.000218	0.003602	0.003952	0.007508	0.000106	8e-05	0.000116	0.013466	0.011614	0.008996
k__Bacteria;p__MVP-21	3.8e-05	7e-05	0.00061	0.001102	2e-05	0.0	1.4e-05	0.0	0.0	1.6e-05	0.0	0.0	3e-05	0.0	0.0	0.0	0.0	2.2e-05	0.0	0.0	0.0	1.4e-05	0.0	0.0	0.0	0.0	0.0	0.0	0.0	0.0	0.0	0.0	0.000274	0.000414	0.005464
k__Bacteria;p__Nitrospirae	0.01822	0.017744	0.000774	0.0011	0.0	0.017608	0.024736	0.023834	0.000986	0.000466	0.000586	0.0	0.000158	0.0	0.001334	0.002862	0.0014	1.4e-05	0.0	0.001258	0.008636	0.000614	0.000538	0.000104	0.0	0.0	0.000126	0.00057	0.002512	1.4e-05	0.0	0.0	0.001866	0.000854	0.000352
k__Bacteria;p__OD1	0.001194	0.000634	8.6e-05	0.000364	0.002452	0.000188	0.000518	0.000286	4.2e-05	2e-05	0.0	6e-05	0.0001	0.000234	9.4e-05	0.000192	6.4e-05	0.0	0.0	4.8e-05	0.000126	0.0	0.0	1.8e-05	0.0	0.0	0.0	1.6e-05	8.6e-05	1.4e-05	0.0	0.0	0.007294	0.003982	0.000518
k__Bacteria;p__OP11	0.0	8e-05	7.6e-05	0.0	0.0	3.4e-05	7.6e-05	5e-05	2e-05	0.0	0.0	0.0	4e-05	0.0	0.0	0.0	0.0	0.0	0.0	0.0	3.2e-05	0.0	0.0	0.0	0.0	0.0	0.0	0.0	4e-06	0.0	0.0	0.0	0.0	7.2e-05	0.0
k__Bacteria;p__OP3	0.000108	0.0	0.0	0.0	0.0	0.0	4e-05	5.6e-05	0.0	0.0	0.0	0.0	0.0	0.0	0.0	0.0	0.0	0.0	0.0	0.0	8e-06	0.0	0.0	0.0	0.0	0.0	0.0	0.0	2.8e-05	0.0	0.0	0.0	0.0	0.0	0.0
k__Bacteria;p__Planctomycetes	0.005472	0.005016	0.00011	0.000128	0.005206	0.003956	0.004942	0.007494	0.000228	0.000132	0.000238	0.0	0.0	9.2e-05	0.00183	0.001796	0.001684	0.0	4e-05	8.8e-05	0.002922	0.000284	0.00022	0.0	0.0	0.0	0.000714	0.000724	0.000976	0.0	0.0	0.0	0.00015	0.00026	0.000182
k__Bacteria;p__Proteobacteria	0.236092	0.256814	0.082824	0.115962	0.204316	0.263784	0.277822	0.269408	0.470598	0.586226	0.519236	0.054928	0.250858	0.006614	0.640888	0.64406	0.684242	0.663706	0.764804	0.821322	0.442342	0.550062	0.565664	0.162262	0.603332	0.152252	0.641992	0.671484	0.644718	0.351202	0.363228	0.645722	0.126658	0.130978	0.212132
k__Bacteria;p__Spirochaetes	0.000148	0.0	0.0	0.0	0.0	0.0	0.00026	5e-05	1.2e-05	1.2e-05	0.0	0.0	0.0	0.0	0.00781	0.010892	0.005306	0.0	0.0	0.0	6e-05	0.000198	0.00024	0.0	0.0	0.0	0.002642	3.6e-05	0.000898	0.0	0.0	0.0	0.0	0.0	0.0
k__Bacteria;p__TM6	0.000392	0.00019	0.00055	0.000652	0.000124	0.000232	0.0004	0.000344	0.0	0.0	0.0	0.000114	7.6e-05	6.6e-05	0.0	1e-05	6.8e-05	0.0	0.0	0.0	8.4e-05	0.0	0.0	3.8e-05	2e-05	0.0	0.0	3.2e-05	3.8e-05	2e-05	0.0	0.0	0.000446	0.000542	0.001764
k__Bacteria;p__TM7	0.000642	0.001018	0.00139	0.002004	0.044516	0.000522	0.001734	0.001474	0.000108	0.000212	0.001014	0.0	0.0	8.4e-05	0.00033	0.000502	0.000284	6.4e-05	0.0	7.2e-05	0.000518	0.000116	0.000186	2e-05	3e-05	0.0	0.000232	0.0002	0.000342	0.0	0.0	0.0	0.00323	0.004014	0.019254
k__Bacteria;p__Tenericutes	0.0	0.000278	0.0	0.0	0.0	0.000176	0.000234	4e-05	1.4e-05	8e-06	3.6e-05	0.0	0.0	0.0	0.0	2.4e-05	2.4e-05	0.0	0.0	0.0	2.2e-05	0.0	1.2e-05	0.0	0.0	0.0	0.0	0.0	0.0	0.0	0.0	0.0	0.0	0.0	0.0
k__Bacteria;p__Verrucomicrobia	0.05009	0.052628	0.00147	0.00267	0.024138	0.037852	0.057986	0.057504	0.002736	0.002098	0.00224	0.000282	0.000584	8e-05	0.027586	0.02489	0.029556	2.6e-05	0.0	0.003088	0.03062	0.005086	0.005574	0.000222	5.6e-05	2.2e-05	0.013242	0.015572	0.01779	0.00027	1.8e-05	7e-05	0.004524	0.00213	0.001896
k__Bacteria;p__WPS-2	0.000184	0.000144	0.000466	0.000726	0.05283	0.00011	0.000178	4e-05	0.0	2.6e-05	0.0	0.0	0.000122	8.4e-05	0.0	1.4e-05	2e-05	0.0	0.0	0.0	0.0	0.0	0.0	0.0	0.0	0.0	0.0	1.4e-05	0.0	0.0	0.0	8e-06	0.000152	0.0	0.000174
k__Bacteria;p__WS2	4.4e-05	0.0	0.0	2.8e-05	0.0	3.2e-05	3.8e-05	4.6e-05	0.0	0.0	2e-05	0.0	0.0	0.0	1e-05	3.6e-05	3.6e-05	0.0	0.0	0.0	1.2e-05	0.0	0.0	0.0	0.0	0.0	0.0	0.0	0.0	0.0	0.0	0.0	5.8e-05	0.0	0.0
k__Bacteria;p__WS3	0.003746	0.007146	3.2e-05	2.6e-05	0.0	0.001542	0.007918	0.005934	0.000324	0.000174	0.000162	0.0	0.0	0.0	0.000344	0.00091	0.000342	0.0	0.0	0.00025	0.00202	0.000198	0.00025	2.2e-05	2.4e-05	0.0	0.000156	5.8e-05	0.00072	0.0	0.0	4e-06	0.000524	0.000226	0.0
k__Bacteria;p__WS4	0.0	4.4e-05	0.0	0.0	0.0	0.0	0.0	2.4e-05	0.0	0.0	0.0	0.0	0.0	0.0	0.0	2.4e-05	0.0	0.0	0.0	0.0	2e-05	0.0	0.0	0.0	0.0	0.0	0.0	2.6e-05	0.0	0.0	0.0	0.0	0.000108	0.0	0.0
k__Bacteria;p__WS5	8.6e-05	0.0	8.2e-05	7.6e-05	0.0	0.0	0.0	0.0	0.0	0.0	0.0	0.0	0.0	0.0	0.0	0.0	0.0	0.0	0.0	0.0	0.0	0.0	0.0	0.0	0.0	0.0	0.0	0.0	0.0	0.0	0.0	0.0	0.000282	0.0	0.000538
